V3 33
FL "C:/Users/DataZip/Desktop/New folder (10)/LD_PRJ-testcases/LD_PRJ-testcases/freq_divider.vhd" 2018/12/23.19:36:18 P.20131013
EN work/freq_divider 1545814802 \
      FL "C:/Users/DataZip/Desktop/New folder (10)/LD_PRJ-testcases/LD_PRJ-testcases/freq_divider.vhd" \
      PB ieee/std_logic_1164 1381692176
AR work/freq_divider/behavioral 1545814803 \
      FL "C:/Users/DataZip/Desktop/New folder (10)/LD_PRJ-testcases/LD_PRJ-testcases/freq_divider.vhd" \
      EN work/freq_divider 1545814802
FL "C:/Users/DataZip/Desktop/New folder (10)/LD_PRJ-testcases/LD_PRJ-testcases/PG0.vhd" 2018/12/23.14:28:20 P.20131013
EN work/PG0 1545808877 \
      FL "C:/Users/DataZip/Desktop/New folder (10)/LD_PRJ-testcases/LD_PRJ-testcases/PG0.vhd" \
      PB ieee/std_logic_1164 1381692176
AR work/PG0/Behavioral 1545808878 \
      FL "C:/Users/DataZip/Desktop/New folder (10)/LD_PRJ-testcases/LD_PRJ-testcases/PG0.vhd" \
      EN work/PG0 1545808877
FL "C:/Users/DataZip/Desktop/New folder (10)/LD_PRJ-testcases/LD_PRJ-testcases/PG1.vhd" 2018/12/23.15:38:09 P.20131013
EN work/PG1 1545808879 \
      FL "C:/Users/DataZip/Desktop/New folder (10)/LD_PRJ-testcases/LD_PRJ-testcases/PG1.vhd" \
      PB ieee/std_logic_1164 1381692176
AR work/PG1/Behavioral 1545808880 \
      FL "C:/Users/DataZip/Desktop/New folder (10)/LD_PRJ-testcases/LD_PRJ-testcases/PG1.vhd" \
      EN work/PG1 1545808879
FL "C:/Users/DataZip/Desktop/New folder (10)/LD_PRJ-testcases/LD_PRJ-testcases/PG2.vhd" 2018/12/23.16:05:55 P.20131013
EN work/PG2 1545808881 \
      FL "C:/Users/DataZip/Desktop/New folder (10)/LD_PRJ-testcases/LD_PRJ-testcases/PG2.vhd" \
      PB ieee/std_logic_1164 1381692176
AR work/PG2/Behavioral 1545808882 \
      FL "C:/Users/DataZip/Desktop/New folder (10)/LD_PRJ-testcases/LD_PRJ-testcases/PG2.vhd" \
      EN work/PG2 1545808881
FL "C:/Users/DataZip/Desktop/New folder (10)/LD_PRJ-testcases/LD_PRJ-testcases/PG3.vhd" 2018/12/23.15:45:46 P.20131013
EN work/PG3 1545808883 \
      FL "C:/Users/DataZip/Desktop/New folder (10)/LD_PRJ-testcases/LD_PRJ-testcases/PG3.vhd" \
      PB ieee/std_logic_1164 1381692176
AR work/PG3/Behavioral 1545808884 \
      FL "C:/Users/DataZip/Desktop/New folder (10)/LD_PRJ-testcases/LD_PRJ-testcases/PG3.vhd" \
      EN work/PG3 1545808883
FL "C:/Users/DataZip/Desktop/New folder (10)/LD_PRJ-testcases/LD_PRJ-testcases/PG4.vhd" 2018/12/23.15:49:17 P.20131013
EN work/PG4 1545808885 \
      FL "C:/Users/DataZip/Desktop/New folder (10)/LD_PRJ-testcases/LD_PRJ-testcases/PG4.vhd" \
      PB ieee/std_logic_1164 1381692176
AR work/PG4/Behavioral 1545808886 \
      FL "C:/Users/DataZip/Desktop/New folder (10)/LD_PRJ-testcases/LD_PRJ-testcases/PG4.vhd" \
      EN work/PG4 1545808885
FL "C:/Users/DataZip/Desktop/New folder (10)/LD_PRJ-testcases/LD_PRJ-testcases/PG5.vhd" 2018/12/23.18:41:44 P.20131013
EN work/PG5 1545808887 \
      FL "C:/Users/DataZip/Desktop/New folder (10)/LD_PRJ-testcases/LD_PRJ-testcases/PG5.vhd" \
      PB ieee/std_logic_1164 1381692176
AR work/PG5/Behavioral 1545808888 \
      FL "C:/Users/DataZip/Desktop/New folder (10)/LD_PRJ-testcases/LD_PRJ-testcases/PG5.vhd" \
      EN work/PG5 1545808887
FL "C:/Users/DataZip/Desktop/New folder (10)/LD_PRJ-testcases/LD_PRJ-testcases/topmodule.vhd" 2018/12/25.17:25:58 P.20131013
EN work/top_module 1545808891 \
      FL "C:/Users/DataZip/Desktop/New folder (10)/LD_PRJ-testcases/LD_PRJ-testcases/topmodule.vhd" \
      PB ieee/std_logic_1164 1381692176
AR work/top_module/Behavioral 1545808892 \
      FL "C:/Users/DataZip/Desktop/New folder (10)/LD_PRJ-testcases/LD_PRJ-testcases/topmodule.vhd" \
      EN work/top_module 1545808891 CP work/PG0 CP elevator CP work/PG1 CP work/PG2 \
      CP work/PG3 CP work/PG4 CP work/PG5 CP bcdsevenseg CP work/freq_divider
